{
    "url": "sinecol.ddns.net",
    "client": "ComercioLimeira",
    "context": "Sindical",
    "ssl": false,
    "user": "rtools",
    "password": "Ty5*6h",
    "app": "Biometria",
    "port": "7070"	
}